Global Emissions and GDP
…
# Find countries where emissions decreased while GDP increased
decoupling_case <- decoupling %>%
  group_by(country_name) %>%
  summarize(decoupling_years = n(),
            avg_emission_reduction = mean(emissions_pct_change),
            avg_gdp_growth = mean(gdp_pct_change),
            .groups = 'drop') %>%
  arrange(desc(decoupling_years))

# View results
print(decoupling_case)

# A tibble: 23 × 4
   country_name           decoupling_years avg_emission_reduction avg_gdp_growth
   <chr>                             <int>                  <dbl>          <dbl>
 1 Belize                                8                  -56.0           8.39
 2 Central African Repub…                8                 -100             7.02
 3 Iceland                               7                 -100            12.9 
 4 Malawi                                7                  -96.5           7.11
 5 Sweden                                7                  -52.1           4.87
 6 Bhutan                                6                 -100             7.51
 7 Paraguay                              6                 -100             5.81
 8 Afghanistan                           5                  -96.1           6.76
 9 Congo, Rep.                           5                  -67.5          14.3 
10 Nepal                                 5                 -100             8.81
# ℹ 13 more rows
…
